{
  "version": 2,
  "name": "nabis-app",
  "alias": "nabis-app",
  "env": {
    "APP_URL": "app.getnabis.com",
    "GRAPHQL_API_URL": "https://api.getnabis.com/graphql/admin",
    "GOOGLE_ANALYTICS_ID": "UA-125404889-1",
    "INTERCOM_APP_ID": "tx19ci84",
    "LANDING_PAGE_URL": "https://www.nabis.com/",
    "NABIS_API_KEY": "nabis-api-key-uh-what-r-u-doingggg"
  },
  "routes": [
    {
      "src": "^/static/(.*)",
      "dest": "/static/$1"
    },
    {
      "src": ".*",
      "dest": "/index.html"
    }
  ]
}
